module gitlab.com/micro/user_service

go 1.20

require (
	github.com/golang/protobuf v1.5.3
	github.com/jmoiron/sqlx v1.3.5
	github.com/lib/pq v1.10.9
	github.com/segmentio/kafka-go v0.4.40
	github.com/spf13/cast v1.5.1
	github.com/uber/jaeger-client-go v2.30.0+incompatible
	go.uber.org/zap v1.24.0
	golang.org/x/crypto v0.9.0
	google.golang.org/grpc v1.55.0
	google.golang.org/protobuf v1.30.0
)

require (
	github.com/HdrHistogram/hdrhistogram-go v1.1.2 // indirect
	github.com/klauspost/compress v1.15.9 // indirect
	github.com/opentracing/opentracing-go v1.2.0 // indirect
	github.com/pierrec/lz4/v4 v4.1.15 // indirect
	github.com/pkg/errors v0.8.1 // indirect
	github.com/uber/jaeger-lib v2.4.1+incompatible // indirect
	go.uber.org/atomic v1.7.0 // indirect
	go.uber.org/multierr v1.6.0 // indirect
	golang.org/x/net v0.10.0 // indirect
	golang.org/x/sys v0.8.0 // indirect
	golang.org/x/text v0.9.0 // indirect
	google.golang.org/genproto v0.0.0-20230306155012-7f2fa6fef1f4 // indirect
)
